…
### 3. Creating combined dataset for exploratory data analysis

Here I remove all the suffixes I added earlier in the record linkage proces to standardize the column names for the final/linked homeless data set and the King County 2003-17 death data set containing records of all decedents with permanent homes. Note that this is not the sample data set that will be used to train the machine learning model later. For exploratory data analysis I chose to look at the full set of data of King County decedents with homes to compare with the homeless group.

I created a new feature to distinguish homeless from "with home" decedents and then merged the two data sets in preparation for exploratory data analysis.

III. EXPLORATORY DATA ANALYSIS
==============================

A. Missing values
-----------------

Missing values in any of the attributes in either HDR or death certificate data may be useful in the upcoming machine learning phase as it is very likely that a key distinction between decedents who were homeless vs. those who had permanent homes is that their records cannot be completed due to lack of information from family members or other "informants".

    ## # A tibble: 28 x 3
    ##    variable  n_miss pct_miss
    ##    <chr>      <int>    <dbl>
    ##  1 residence    151  13.8   
    ##  2 rcounty       35   3.20  
    ##  3 rcity         32   2.93  
    ##  4 occupcode     30   2.74  
    ##  5 brgrace        7   0.640 
    ##  6 rzip           5   0.457 
    ##  7 attclass       2   0.183 
    ##  8 UCOD           2   0.183 
    ##  9 manner         1   0.0915
    ## 10 age5cat        1   0.0915
    ## # ... with 18 more rows

    ## # A tibble: 28 x 3
    ##    variable   n_miss pct_miss
    ##    <chr>       <int>    <dbl>
    ##  1 brgrace     12170  6.98   
    ##  2 occupcode    3791  2.18   
    ##  3 CODliteral     58  0.0333 
    ##  4 UCOD           42  0.0241 
    ##  5 manner         22  0.0126 
    ##  6 age5cat        18  0.0103 
    ##  7 dcity          16  0.00918
    ##  8 certno          0  0      
    ##  9 dcounty         0  0      
    ## 10 attclass        0  0      
    ## # ... with 18 more rows
…
