Classifying deaths in Washington State by homelessness status
…
homelessa <- merge(homeless, KC, by.x = c("lname.h", "fname.h", "dob.h"), by.y = c("lname.k", "fname.k", "dob.k"), all.x=TRUE)

#Remove duplicates
homelessa <- distinct(homelessa, lname.h, dob.h, .keep_all = TRUE)
miss_var_summary(homelessa)

## # A tibble: 54 x 3
##    variable    n_miss pct_miss
##    <chr>        <int>    <dbl>
##  1 rescity.h      613     54.2
##  2 ssn.h          286     25.3
##  3 residence.k    260     23.0
##  4 married.h      155     13.7
##  5 mname.h        136     12.0
##  6 certno.k       122     10.8
##  7 dod.k          122     10.8
##  8 mname.k        122     10.8
##  9 sex.k          122     10.8
## 10 ssn.k          122     10.8
## # ... with 44 more rows
# This first pass resulted in 1,008 homeless records being linked to their respective death certificate information.
# To try to match the remaining 121 records, split the homeless data sets into the linked set (n=1,010) and the set of decedent names (n=121) that did not have any associated death certificate numbers (which would have come from the King County death certificate data set).  Try linking the records with no death certificate numbers by social security number for this second pass.

homeless2 <- filter(homelessa, is.na(certno.k))
homelessa1 <- filter(homelessa, !is.na(certno.k))

#Linking by social security number
homeless2 <- select(homeless2, ends_with(".h"))
homelessb <- merge(homeless2, KC, by.x = "ssn.h", by.y = "ssn.k", all.x = TRUE)

#remove duplicates
homelessb <- distinct(homelessb, lname.h, dob.h, .keep_all = TRUE)
miss_var_summary(homelessb)

## # A tibble: 56 x 3
##    variable    n_miss pct_miss
##    <chr>        <int>    <dbl>
##  1 rescity.h       75     61.5
##  2 residence.k     71     58.2
##  3 certno.k        60     49.2
##  4 dob.k           60     49.2
##  5 dod.k           60     49.2
##  6 lname.k         60     49.2
##  7 fname.k         60     49.2
##  8 mname.k         60     49.2
##  9 sex.k           60     49.2
## 10 attclass.k      60     49.2
## # ... with 46 more rows

#This second link (with ssn) yielded an additional 61 linked records leaving 60 unmatched

homeless3 <-filter(homelessb, is.na(certno.k))
homelessb1 <- filter(homelessb, !is.na(certno.k))

# linking by first name, dob, dod
homeless3 <-select(homeless3, ends_with(".h"))
homelessc <- merge(homeless3, KC, by.x = c("dob.h", "dod.h"), by.y = c("dob.k", "dod.k"), all.x = TRUE)
homelessc <- distinct(homelessc, lname.h, dob.h, .keep_all = TRUE)
miss_var_summary(homelessc)

## # A tibble: 55 x 3
##    variable    n_miss pct_miss
##    <chr>        <int>    <dbl>
##  1 rescity.h       44     73.3
##  2 residence.k     43     71.7
##  3 age.k           42     70  
##  4 age5cat.k       42     70  
##  5 certno.k        41     68.3
##  6 lname.k         41     68.3
##  7 fname.k         41     68.3
##  8 mname.k         41     68.3
##  9 sex.k           41     68.3
## 10 ssn.k           41     68.3
## # ... with 45 more rows

homeless4 <-filter(homelessc, is.na(certno.k))
homelessc1 <- filter(homelessc, !is.na(certno.k))

# linking by first name, last name, dod
homeless4 <-select(homeless4, ends_with(".h"))
homelessd <- merge(homeless4, KC, by.x = c("dod.h", "fname.h", "lname.h"), by.y = c("dod.k", "fname.k", "lname.k"), all.x = TRUE)
homelessd <- distinct(homelessd, lname.h, dob.h, .keep_all = TRUE)
miss_var_summary(homelessd)

## # A tibble: 54 x 3
##    variable    n_miss pct_miss
##    <chr>        <int>    <dbl>
##  1 rescity.h       34     82.9
##  2 residence.k     26     63.4
##  3 dob.k           25     61.0
##  4 age.k           25     61.0
##  5 age5cat.k       25     61.0
##  6 certno.k        24     58.5
##  7 mname.k         24     58.5
##  8 sex.k           24     58.5
##  9 ssn.k           24     58.5
## 10 attclass.k      24     58.5
## # ... with 44 more rows
…
miss_var_summary(homelessfinal)

## # A tibble: 43 x 3
##    variable       n_miss pct_miss
##    <chr>           <int>    <dbl>
##  1 residence.k       153   13.8  
##  2 mname.h           125   11.3  
##  3 placeofdeath.h     93    8.41 
##  4 dod.h              55    4.97 
##  5 eventaddr.h        34    3.07 
##  6 eventcity.h        31    2.80 
##  7 dzip.h              5    0.452
##  8 deathaddr.h         2    0.181
##  9 deathcity.h         2    0.181
## 10 age.k               2    0.181
## # ... with 33 more rows
…
III. EXPLORATORY DATA ANALYSIS

A. Missing values

Missing values in any of the attributes in either HDR or death certificate data may be useful in the upcoming machine learning phase as it is very likely that a key distinction between decedents who were homeless vs.those who had permanent homes is that their records cannot be completed due to lack of information from family members or other informants.

#homeless data
miss_var_summary(h)

## # A tibble: 29 x 3
##    variable  n_miss pct_miss
##    <chr>      <int>    <dbl>
##  1 residence    153   13.8  
##  2 age            2    0.181
##  3 age5cat        2    0.181
##  4 certno         0    0    
##  5 dcounty        0    0    
##  6 attclass       0    0    
##  7 sex            0    0    
##  8 brgrace        0    0    
##  9 hispanic       0    0    
## 10 manner         0    0    
## # ... with 19 more rows

#with home sample data
miss_var_summary(wh)

## # A tibble: 29 x 3
##    variable  n_miss pct_miss
##    <chr>      <int>    <dbl>
##  1 residence      2   0.0315
##  2 certno         0   0     
##  3 dcounty        0   0     
##  4 attclass       0   0     
##  5 sex            0   0     
##  6 brgrace        0   0     
##  7 hispanic       0   0     
##  8 manner         0   0     
##  9 rcounty        0   0     
## 10 rcity          0   0     
## # ... with 19 more rows
…
