…
``` r
miss_var_summary(dth16_King)
```

    ## # A tibble: 32 x 3
    ##    variable             n_miss pct_miss
    ##    <chr>                 <int>    <dbl>
    ##  1 deathaddress           4487 35.0    
    ##  2 mname                  1498 11.7    
    ##  3 facility                 23  0.179  
    ##  4 resgeomatchscore         23  0.179  
    ##  5 certifierdesignation      5  0.0390 
    ##  6 bridgerace                4  0.0312 
    ##  7 underly                   4  0.0312 
    ##  8 fname                     1  0.00780
    ##  9 deathcitywacode           1  0.00780
    ## 10 deathcountywacode         1  0.00780
    ## # ... with 22 more rows
…
