…
2. Examining missing data
-------------------------

    ## # A tibble: 33 x 4
    ##    variable                    n_miss pct_miss n_miss_cumsum
    ##    <chr>                        <int>    <dbl>         <int>
    ##  1 Surviving Spouse first name  53439  100.0           76316
    ##  2 Death Address                18404   34.4           22875
    ##  3 Decedent middle name          4470    8.36           4471
    ##  4 Time of Death                 2180    4.08          79202
    ##  5 Res Geo Census Block 2010      193    0.361         76989
    ##  6 Surviving Spouse last name     124    0.232         76440
    ##  7 Residence Longitude            115    0.215         76796
    ##  8 Residence Latitude             114    0.213         76681
    ##  9 Res Geo Match Score             93    0.174         79297
    ## 10 Residence City                  55    0.103         76510
    ## # ... with 23 more rows
…
