…
EXPLORATORY DATA ANALYSIS
=========================

A. Missing values
-----------------

Missing values in any of the attributes in either HDR or death certificate data may be useful in the upcoming machine learning phase as it is very likely that a key distinction between decedents who were homeless vs. those who had permanent homes is that their records cannot be completed due to lack of information from family members or other "informants".

``` r
# homeless data
h <- read_csv("h.csv")
miss_var_summary(h)
```

    ## # A tibble: 28 x 3
    ##    variable   n_miss pct_miss
    ##    <chr>       <int>    <dbl>
    ##  1 residence      60   17.9  
    ##  2 rcounty        11    3.28 
    ##  3 rcity          11    3.28 
    ##  4 occupcode      10    2.99 
    ##  5 brgrace         6    1.79 
    ##  6 manner          1    0.299
    ##  7 UCOD            1    0.299
    ##  8 age5cat         1    0.299
    ##  9 CODliteral      1    0.299
    ## 10 certno          0    0    
    ## # ... with 18 more rows
…
``` r
wh <- read_csv("wh.csv")
# with home sample data
miss_var_summary(wh)
```

    ## # A tibble: 28 x 3
    ##    variable   n_miss pct_miss
    ##    <chr>       <int>    <dbl>
    ##  1 brgrace     12158  20.7   
    ##  2 occupcode    1384   2.35  
    ##  3 UCOD           29   0.0493
    ##  4 CODliteral     27   0.0459
    ##  5 manner         19   0.0323
    ##  6 dcity          12   0.0204
    ##  7 age5cat         9   0.0153
    ##  8 certno          0   0     
    ##  9 dcounty         0   0     
    ## 10 attclass        0   0     
    ## # ... with 18 more rows
…
